(footprint "RJ9 RJ9GP" (version 20211014) (generator pcbnew)
  (layer "F.Cu")
  (tedit 62097C4E)
  (descr "RJ9 connector 4p4c Horizontal https://ninigi.com/gb/en/product/ninigi/rj-connectors/rj9gp/112953/")
  (tags "RJ9 connector 4p4c NINIGI")
  (attr through_hole)
  (fp_text reference "REF**" (at -0.045 -2.6875 180) (layer "F.SilkS")
    (effects (font (size 1 1) (thickness 0.15)))
    (tstamp 61534437-32b2-4013-a7b8-ab3035856e32)
  )
  (fp_text value "RJ9_Vertical" (at -0.05 9.4375 180) (layer "F.Fab")
    (effects (font (size 1 1) (thickness 0.15)))
    (tstamp 40b095e8-a59b-4b4d-846a-ffaa87f19cd2)
  )
  (fp_text user "${REFERENCE}" (at -0.02 -1.2875 180) (layer "F.Fab")
    (effects (font (size 1 1) (thickness 0.15)))
    (tstamp 04159c5b-6b16-41be-a0df-c8eea6c1f65b)
  )
  (fp_line (start 4 8.0875) (end -4 8.0875) (layer "F.SilkS") (width 0.12) (tstamp 01ad5f4e-e3a5-497e-9cbb-90dfabd1358f))
  (fp_line (start -4 8.0875) (end -4 3.2675) (layer "F.SilkS") (width 0.12) (tstamp 3bf73f59-cd74-489c-8bec-fd958b37efbb))
  (fp_line (start 4 -8.3125) (end 4 -0.1925) (layer "F.SilkS") (width 0.12) (tstamp 55f28d59-0c09-4c83-9b3c-fb51d8a4ee89))
  (fp_line (start -4 -8.3125) (end 4 -8.3125) (layer "F.SilkS") (width 0.12) (tstamp 5a42aca8-ec95-40ed-8b50-2872abb585ec))
  (fp_line (start -4 -8.3125) (end -4 -0.1925) (layer "F.SilkS") (width 0.12) (tstamp b65b0e2e-be07-4685-82f5-130e221d1cf4))
  (fp_line (start 4 3.2675) (end 4 8.0875) (layer "F.SilkS") (width 0.12) (tstamp bbb9ba0a-cb0f-4586-97cb-18778e4dc508))
  (fp_line (start -4.5 -0.0425) (end -4.5 -8.5875) (layer "F.CrtYd") (width 0.05) (tstamp 031aba5f-f3a0-4678-8a86-809dcd262b7c))
  (fp_line (start 4.5 8.5875) (end -4.5 8.5875) (layer "F.CrtYd") (width 0.05) (tstamp 14399dd4-6227-4b53-baf0-abddffb88dbf))
  (fp_line (start -4.5 -8.5875) (end 4.5 -8.5875) (layer "F.CrtYd") (width 0.05) (tstamp 3b554623-734e-48e9-98ba-28cfba6691ce))
  (fp_line (start -4.5 8.5875) (end -4.5 3.1175) (layer "F.CrtYd") (width 0.05) (tstamp 5b0a9f2a-ffa9-404a-8672-5625c3f35a4d))
  (fp_line (start 4.5 -8.5875) (end 4.5 -0.0425) (layer "F.CrtYd") (width 0.05) (tstamp 6f539239-a902-4059-8905-54d7ab941cc9))
  (fp_line (start 4.5 8.5875) (end 4.5 3.1175) (layer "F.CrtYd") (width 0.05) (tstamp 73cfd7e1-0c50-4362-99a1-809d5dd04dc6))
  (fp_arc (start -4.5 3.1175) (mid -5.52812 1.5375) (end -4.5 -0.0425) (layer "F.CrtYd") (width 0.05) (tstamp 6400a1b7-21e9-4f42-966b-b654989969b6))
  (fp_arc (start 4.5 -0.0425) (mid 5.52812 1.5375) (end 4.5 3.1175) (layer "F.CrtYd") (width 0.05) (tstamp c75c842e-573f-4f90-9e22-558ecdf4a1b7))
  (fp_line (start -4 -8.3125) (end 4 -8.3125) (layer "F.Fab") (width 0.1) (tstamp 0924f6f8-3672-4e14-adb7-e624924f5cd8))
  (fp_line (start -4 8.0875) (end -4 -8.3125) (layer "F.Fab") (width 0.1) (tstamp 28f82adf-89a8-45fb-808f-515d4ac386bb))
  (fp_line (start 4 8.0875) (end -4 8.0875) (layer "F.Fab") (width 0.1) (tstamp 57d49daf-7ffa-459b-8697-f40d3f74f7fa))
  (fp_line (start 4 -8.3125) (end 4 8.0875) (layer "F.Fab") (width 0.1) (tstamp 61b284aa-7956-4be4-82ee-3d7effbed9fa))
  (pad "" np_thru_hole circle (at 3.82 1.5375 180) (size 3.25 3.25) (drill 3.25) (layers F&B.Cu *.Mask) (tstamp 8fbe7aa7-04ad-42b7-8864-4b5775781430))
  (pad "" np_thru_hole circle (at -3.8 1.5375 180) (size 3.25 3.25) (drill 3.25) (layers F&B.Cu *.Mask) (tstamp 91a6c679-ce4d-44c1-8fe0-5f97a42f7808))
  (pad "1" thru_hole rect (at -1.895 -4.8125 180) (size 1.5 1.5) (drill 0.9) (layers *.Cu *.Mask) (tstamp dea4fae9-8ce0-455e-a7af-5b1a0c4aebce))
  (pad "2" thru_hole circle (at -0.625 -7.3525 180) (size 1.5 1.5) (drill 0.9) (layers *.Cu *.Mask) (tstamp 8bc04549-e239-40b7-a424-884af74166c4))
  (pad "3" thru_hole circle (at 0.645 -4.8125 180) (size 1.5 1.5) (drill 0.9) (layers *.Cu *.Mask) (tstamp 4381ed40-fa8e-49de-9ea2-542b423795f3))
  (pad "4" thru_hole circle (at 1.915 -7.3525 180) (size 1.5 1.5) (drill 0.9) (layers *.Cu *.Mask) (tstamp 40df184b-22c5-46ce-9899-fb7d9bded97d))
  (model "${KICAD6_3DMODEL_DIR}/Connector_RJ.3dshapes/RJ9_4P4C.step"
    (offset (xyz 0.005 0.0125 8))
    (scale (xyz 1 1 1))
    (rotate (xyz 90 -90 0))
  )
)
